1 semestre/AAD/Pratica/Assigment1-Project/Haming_Code_project/simulation/qsim/HammingCode.msim.vcd
$comment
	File created using the following command:
		vcd file HammingCode.msim.vcd -direction
$end
$date
	Wed Dec 08 15:31:16 2021
$end
$version
	ModelSim Version 10.5b
$end
$timescale
	1ps
$end

$scope module bitserialenc_vhd_vec_tst $end
$var wire 1 ! clk $end
$var wire 1 " m $end
$var wire 1 # nGRst $end
$var wire 1 $ saida [4] $end
$var wire 1 % saida [3] $end
$var wire 1 & saida [2] $end
$var wire 1 ' saida [1] $end
$var wire 1 ( saida [0] $end
$var wire 1 ) x $end

$scope module i1 $end
$var wire 1 * gnd $end
$var wire 1 + vcc $end
$var wire 1 , unknown $end
$var wire 1 - devoe $end
$var wire 1 . devclrn $end
$var wire 1 / devpor $end
$var wire 1 0 ww_devoe $end
$var wire 1 1 ww_devclrn $end
$var wire 1 2 ww_devpor $end
$var wire 1 3 ww_m $end
$var wire 1 4 ww_clk $end
$var wire 1 5 ww_nGRst $end
$var wire 1 6 ww_x $end
$var wire 1 7 ww_saida [4] $end
$var wire 1 8 ww_saida [3] $end
$var wire 1 9 ww_saida [2] $end
$var wire 1 : ww_saida [1] $end
$var wire 1 ; ww_saida [0] $end
$var wire 1 < \clk~inputclkctrl_INCLK_bus\ [3] $end
$var wire 1 = \clk~inputclkctrl_INCLK_bus\ [2] $end
$var wire 1 > \clk~inputclkctrl_INCLK_bus\ [1] $end
$var wire 1 ? \clk~inputclkctrl_INCLK_bus\ [0] $end
$var wire 1 @ \x~output_o\ $end
$var wire 1 A \saida[0]~output_o\ $end
$var wire 1 B \saida[1]~output_o\ $end
$var wire 1 C \saida[2]~output_o\ $end
$var wire 1 D \saida[3]~output_o\ $end
$var wire 1 E \saida[4]~output_o\ $end
$var wire 1 F \clk~input_o\ $end
$var wire 1 G \clk~inputclkctrl_outclk\ $end
$var wire 1 H \m~input_o\ $end
$var wire 1 I \count|ff0|Q~0_combout\ $end
$var wire 1 J \nGRst~input_o\ $end
$var wire 1 K \count|ff1|Q~0_combout\ $end
$var wire 1 L \count|ff1|Q~q\ $end
$var wire 1 M \count|ff2|Q~0_combout\ $end
$var wire 1 N \count|ff2|Q~q\ $end
$var wire 1 O \count|ff3|Q~0_combout\ $end
$var wire 1 P \count|ff3|Q~q\ $end
$var wire 1 Q \count|ad3|y~combout\ $end
$var wire 1 R \count|ff4|Q~0_combout\ $end
$var wire 1 S \count|ff4|Q~q\ $end
$var wire 1 T \cont|rst~combout\ $end
$var wire 1 U \count|ff0|Q~q\ $end
$var wire 1 V \cont|cMem|prog~2_combout\ $end
$var wire 1 W \cont|cMem|prog~0_combout\ $end
$var wire 1 X \cont|cMem|prog~3_combout\ $end
$var wire 1 Y \flip2|Q~0_combout\ $end
$var wire 1 Z \flip2|Q~q\ $end
$var wire 1 [ \cont|cMem|prog~6_combout\ $end
$var wire 1 \ \flip3|Q~0_combout\ $end
$var wire 1 ] \flip3|Q~q\ $end
$var wire 1 ^ \cont|cMem|prog~5_combout\ $end
$var wire 1 _ \flip0|Q~0_combout\ $end
$var wire 1 ` \flip0|Q~q\ $end
$var wire 1 a \cont|cMem|prog~4_combout\ $end
$var wire 1 b \flip1|Q~0_combout\ $end
$var wire 1 c \flip1|Q~q\ $end
$var wire 1 d \cont|cMem|prog~1_combout\ $end
$var wire 1 e \m4_1|orMux|y~0_combout\ $end
$var wire 1 f \m4_1|orMux|y~1_combout\ $end
$var wire 1 g \m2_1|orMux|y~0_combout\ $end
$var wire 1 h \flip4|Q~q\ $end
$var wire 1 i \cont|ALT_INV_rst~combout\ $end
$upscope $end
$upscope $end
$enddefinitions $end
#0
$dumpvars
0!
0"
1#
0)
0*
1+
x,
1-
1.
1/
10
11
12
03
04
15
06
0@
0A
0B
0C
0D
0E
0F
0G
0H
1I
1J
0K
0L
0M
0N
0O
0P
0Q
0R
0S
0T
0U
0V
0W
0X
0Y
0Z
0[
0\
0]
0^
0_
0`
0a
0b
0c
0d
0e
0f
0g
0h
1i
07
08
09
0:
0;
1<
1=
1>
0?
0$
0%
0&
0'
0(
$end
#20000
1!
14
1F
1?
1G
1U
0I
1K
1X
1a
1A
1;
1(
#40000
0!
04
0F
0?
0G
#60000
1!
14
1F
1?
1G
1L
0U
1I
0X
1[
0A
1B
0;
1:
0(
1'
#80000
0!
04
0F
0?
0G
#90000
1"
13
1H
1\
1_
1g
#100000
1!
14
1F
1?
1G
1U
1]
1`
1h
0_
1e
0\
0I
0K
1M
1X
0[
1^
0a
1b
1_
1\
1Y
1f
1@
1A
16
1;
1)
1(
#120000
0!
04
0F
0?
0G
#140000
1!
14
1F
1?
1G
0L
1N
0U
1Z
1c
0b
0Y
1I
0X
1[
0\
1Y
0A
1C
0B
0;
19
0:
0(
0'
1&
#160000
0!
04
0F
0?
0G
#170000
0"
03
0H
1\
1b
0g
#180000
1!
14
1F
1?
1G
1U
0h
0I
1K
1X
1a
0@
1A
06
1;
0)
1(
#200000
0!
04
0F
0?
0G
#220000
1!
14
1F
1?
1G
1L
0U
1I
0[
0^
0a
0A
1B
0;
1:
0(
1'
#240000
0!
04
0F
0?
0G
#260000
1!
14
1F
1?
1G
1U
0I
0K
0M
1O
0X
1[
1A
1;
1(
#280000
0!
04
0F
0?
0G
#290000
1"
13
1H
0\
0_
0b
1g
#300000
1!
14
1F
1?
1G
0L
0N
1P
0U
0]
0`
0c
1h
1b
1_
0e
1\
1I
1X
1a
0b
0Y
0f
1@
0A
1D
0C
0B
16
0;
18
09
0:
1)
0(
0'
0&
1%
#320000
0!
04
0F
0?
0G
#330000
0"
03
0H
1Y
0\
0_
0g
#340000
1!
14
1F
1?
1G
1U
0h
0I
1K
1^
0a
0@
1A
06
1;
0)
1(
#360000
0!
04
0F
0?
0G
#370000
1"
13
1H
0Y
1\
1b
1g
#380000
1!
14
1F
1?
1G
1L
0U
0Z
1]
1c
1h
0b
0\
1Y
1I
0^
1_
1@
0A
1B
16
0;
1:
1)
0(
1'
#400000
0!
04
0F
0?
0G
#410000
0"
03
0H
0Y
1\
0_
1b
0g
#420000
1!
14
1F
1?
1G
1U
0h
0I
0K
1M
1V
0X
0[
1^
1a
0@
1A
06
1;
0)
1(
#440000
0!
04
0F
0?
0G
#460000
1!
14
1F
1?
1G
0L
1N
0U
1I
1d
1e
0A
1C
0B
1f
0;
19
0:
0(
0'
1&
1g
#480000
0!
04
0F
0?
0G
#500000
1!
14
1F
1?
1G
1U
1h
0I
1K
1W
0d
0e
1@
1A
0f
16
1;
1)
1(
0g
#520000
0!
04
0F
0?
0G
#540000
1!
14
1F
1?
1G
1L
0U
0h
1I
1d
1e
0@
0A
1B
1f
06
0;
1:
0)
0(
1'
1g
#560000
0!
04
0F
0?
0G
#580000
1!
14
1F
1?
1G
1U
1h
0I
0K
0M
0O
1Q
0V
0W
0d
0e
0g
1R
1@
1A
0f
16
1;
1)
1(
#600000
0!
04
0F
0?
0G
#620000
1!
14
1F
1?
1G
0L
0N
0P
1S
0U
0h
1I
1T
0Q
0^
0a
0i
0@
0A
1E
0D
0C
0B
0S
0]
0c
06
0;
17
08
09
0:
0b
0\
0R
0T
0)
0(
0'
0&
0%
1$
1i
0E
07
0$
#640000
0!
04
0F
0?
0G
#650000
1"
13
1H
1_
1b
1g
#660000
1!
14
1F
1?
1G
1U
1`
1c
1h
0b
0_
1e
0I
1K
1X
1a
1b
1Y
1f
1@
1A
16
1;
1)
1(
#680000
0!
04
0F
0?
0G
#690000
0"
03
0H
0Y
1_
0g
#700000
1!
14
1F
1?
1G
1L
0U
0h
1I
0X
1[
0@
0A
1B
06
0;
1:
0)
0(
1'
#720000
0!
04
0F
0?
0G
#740000
1!
14
1F
1?
1G
1U
0I
0K
1M
1X
0[
1^
0a
1A
1;
1(
#760000
0!
04
0F
0?
0G
#770000
1"
13
1H
1Y
0b
1g
#780000
1!
14
1F
1?
1G
0L
1N
0U
1Z
0c
1h
1b
0Y
1I
0X
1[
1\
1Y
1@
0A
1C
0B
16
0;
19
0:
1)
0(
0'
1&
#800000
0!
04
0F
0?
0G
#820000
1!
14
1F
1?
1G
1U
1]
1c
0b
0\
0I
1K
1X
1a
1b
0Y
1A
1;
1(
#840000
0!
04
0F
0?
0G
#850000
0"
03
0H
1Y
1\
0g
#860000
1!
14
1F
1?
1G
1L
0U
0h
1I
0[
0^
0a
0@
0A
1B
06
0;
1:
0)
0(
1'
#880000
0!
04
0F
0?
0G
#900000
1!
14
1F
1?
1G
1U
0I
0K
0M
1O
0X
1[
1A
1;
1(
#920000
0!
04
0F
0?
0G
#940000
1!
14
1F
1?
1G
0L
0N
1P
0U
1I
1X
1a
0A
1D
0C
0B
0;
18
09
0:
0(
0'
0&
1%
#960000
0!
04
0F
0?
0G
#970000
1"
13
1H
0Y
0\
0_
1g
#980000
1!
14
1F
1?
1G
1U
0Z
0]
0`
1h
1_
0e
1\
1Y
0I
1K
1^
0a
0b
0_
0f
1@
1A
16
1;
1)
1(
#1000000
0!
04
0F
0?
0G
#1010000
0"
03
0H
0Y
0\
1b
0g
#1020000
1!
14
1F
1?
1G
1L
0U
0h
1I
0^
0@
0A
1B
06
0;
1:
0)
0(
1'
#1040000
0!
04
0F
0?
0G
#1050000
1"
13
1H
1Y
1\
1_
0b
1g
#1060000
1!
14
1F
1?
1G
1U
1Z
1]
1`
0c
1h
1b
0_
1e
0\
0Y
0I
0K
1M
1V
0X
0[
1^
1a
0b
1_
1\
1Y
0g
1f
1@
1A
1g
16
1;
1)
1(
#1080000
0!
04
0F
0?
0G
#1090000
0"
03
0H
#1100000
1!
14
1F
1?
1G
0L
1N
0U
1I
1d
0e
0A
1C
0B
0f
0;
19
0:
0(
0'
1&
0g
#1120000
0!
04
0F
0?
0G
#1140000
1!
14
1F
1?
1G
1U
0h
0I
1K
1W
0d
1f
0@
1A
1g
06
1;
0)
1(
#1160000
0!
04
0F
0?
0G
#1180000
1!
14
1F
1?
1G
1L
0U
1h
1I
1d
1e
1@
0A
1B
16
0;
1:
1)
0(
1'
#1200000
0!
04
0F
0?
0G
#1220000
1!
14
1F
1?
1G
1U
0I
0K
0M
0O
1Q
0V
0W
0d
0g
1R
1A
1;
1(
#1240000
0!
04
0F
0?
0G
#1260000
1!
14
1F
1?
1G
0L
0N
0P
1S
0U
0h
1I
1T
0Q
0^
0a
0i
0@
0A
1E
0D
0C
0B
0S
0Z
0]
0`
06
0;
17
08
09
0:
0_
0e
0\
0Y
0R
0T
0)
0(
0'
0&
0%
1$
1i
0f
0E
07
0$
#1280000
0!
04
0F
0?
0G
#1300000
1!
14
1F
1?
1G
1U
0I
1K
1X
1a
1A
1;
1(
#1320000
0!
04
0F
0?
0G
#1340000
1!
14
1F
1?
1G
1L
0U
1I
0X
1[
0A
1B
0;
1:
0(
1'
#1360000
0!
04
0F
0?
0G
#1380000
1!
14
1F
1?
1G
1U
0I
0K
1M
1X
0[
1^
0a
1A
1;
1(
#1400000
0!
04
0F
0?
0G
#1420000
1!
14
1F
1?
1G
0L
1N
0U
1I
0X
1[
0A
1C
0B
0;
19
0:
0(
0'
1&
#1440000
0!
04
0F
0?
0G
#1460000
1!
14
1F
1?
1G
1U
0I
1K
1X
1a
1A
1;
1(
#1480000
0!
04
0F
0?
0G
#1500000
1!
14
1F
1?
1G
1L
0U
1I
0[
0^
0a
0A
1B
0;
1:
0(
1'
#1520000
0!
04
0F
0?
0G
#1540000
1!
14
1F
1?
1G
1U
0I
0K
0M
1O
0X
1[
1A
1;
1(
#1560000
0!
04
0F
0?
0G
#1580000
1!
14
1F
1?
1G
0L
0N
1P
0U
1I
1X
1a
0A
1D
0C
0B
0;
18
09
0:
0(
0'
0&
1%
#1600000
0!
04
0F
0?
0G
#1620000
1!
14
1F
1?
1G
1U
0I
1K
1^
0a
1A
1;
1(
#1640000
0!
04
0F
0?
0G
#1660000
1!
14
1F
1?
1G
1L
0U
1I
0^
0A
1B
0;
1:
0(
1'
#1680000
0!
04
0F
0?
0G
#1700000
1!
14
1F
1?
1G
1U
0I
0K
1M
1V
0X
0[
1^
1a
1A
1;
1(
#1720000
0!
04
0F
0?
0G
#1740000
1!
14
1F
1?
1G
0L
1N
0U
1I
1d
0A
1C
0B
0;
19
0:
0(
0'
1&
#1760000
0!
04
0F
0?
0G
#1780000
1!
14
1F
1?
1G
1U
0I
1K
1W
0d
1A
1;
1(
#1800000
0!
04
0F
0?
0G
#1820000
1!
14
1F
1?
1G
1L
0U
1I
1d
1e
0A
1B
0;
1:
0(
1'
#1840000
0!
04
0F
0?
0G
#1860000
1!
14
1F
1?
1G
1U
0I
0K
0M
0O
1Q
0V
0W
0d
0e
1f
1R
1A
0f
1;
1(
#1880000
0!
04
0F
0?
0G
#1900000
1!
14
1F
1?
1G
0L
0N
0P
1S
0U
1I
1T
0Q
0^
0a
0i
0A
1E
0D
0C
0B
0S
0;
17
08
09
0:
0R
0T
0(
0'
0&
0%
1$
1i
0E
07
0$
#1920000
0!
04
0F
0?
0G
#1940000
1!
14
1F
1?
1G
1U
0I
1K
1X
1a
1A
1;
1(
#1960000
0!
04
0F
0?
0G
#1980000
1!
14
1F
1?
1G
1L
0U
1I
0X
1[
0A
1B
0;
1:
0(
1'
